Nada puede malir salgit add .

todo se puede asdasd
asdasdasdasd
asdasdasdasd
asdasdasdasd
asdasdasdasd
asdasdasdasd
asdasdasdasd
asdasdasdasd
asdasdasdasdasd
asdasdasdasdasd
adsdassdasdasd
123123123123123123
123123123123123123
123123123123123123
123123123123123123
123123123123123123
123123123123123123
123123123123123123
fabrica noche 



brutos, pero decididos, tiene toda la razon 



adíos

a reir que nacimos llorando.. 

<<<<<<< HEAD
<<<<<<< HEAD
<<<<<<< HEAD
no pensamos con hambre
como sabemos si no sabemos
=======
=======
>>>>>>> b042fa4edf56d6fa8902a2935a817fcdb5f1c378

solo se que nada se 

<<<<<<< HEAD
<<<<<<< HEAD
tiempos de filosofar 

solo se que nada se 
<<<<<<< HEAD
>>>>>>> 3085436a375ebbab0cd2eff85920af1e88eada11
=======
>>>>>>> 0c8faf9d9520a70fca9d2e8030bed65e7bed964c
=======
rrrrrr
solo se que nada se Año nuevo  
>>>>>>> a6d33daeb79ebabbe2283582c0a41710dd09381a
<<<<<<< HEAD
=======
>>>>>>> 30423f299e0aba36397eb35b3e53927a26eef371
>>>>>>> 0c8faf9d9520a70fca9d2e8030bed65e7bed964c
=======
rrrrrr
solo se que nada se Año nuevo
>>>>>>> b042fa4edf56d6fa8902a2935a817fcdb5f1c378

todo puede salir mal saldra mal.. kathe 

Si se puede. 

<<<<<<< HEAD
Buenas noches 
<<<<<<< HEAD


el que come de todo nunca tiene hambre 
=======
>>>>>>> 5f0a16374773189ab2f92183b773fc8fa50156b9
>>>>>>> 6dc3c63ed41eea6f35cff7a344c34ebce1501671
=======
Buenas noches
con errores ahi exelencia
>>>>>>> 35bcb2701a98516cbf49e2615d324a43f474b5ab
